{
  "name": "roleMapping",
  "base": "RoleMapping",
  "options": {
    "idInjection": false,
    "mysql": {
      "schema": "cogotrip",
      "table": "role_mapping"
    },
    "relations": {}
  },
  "properties": {
    "id": {
      "type": "Number",
      "required": false,
      "length": null,
      "precision": 10,
      "scale": 0,
      "id": 1,
      "mysql": {
        "columnName": "id",
        "dataType": "int",
        "dataLength": null,
        "dataPrecision": 10,
        "dataScale": 0,
        "nullable": "N"
      }
    },
    "principalType": {
      "type": "String",
      "required": false,
      "length": 512,
      "precision": null,
      "scale": null,
      "mysql": {
        "columnName": "principal_type",
        "dataType": "varchar",
        "dataLength": 512,
        "dataPrecision": null,
        "dataScale": null,
        "nullable": "Y"
      }
    },
    "principalId": {
      "type": "String",
      "required": false,
      "length": 512,
      "precision": null,
      "scale": null,
      "mysql": {
        "columnName": "principal_id",
        "dataType": "varchar",
        "dataLength": 512,
        "dataPrecision": null,
        "dataScale": null,
        "nullable": "Y"
      }
    },
    "roleId": {
      "type": "Number",
      "required": false,
      "length": null,
      "precision": 10,
      "scale": 0,
      "mysql": {
        "columnName": "role_id",
        "dataType": "int",
        "dataLength": null,
        "dataPrecision": 10,
        "dataScale": 0,
        "nullable": "Y"
      }
    }
  }
}
