{
  "name": "bookingAccounting",
  "options": {
    "idInjection": false,
    "mysql": {
      "schema": "cogotrip",
      "table": "booking_accounting"
    },
    "relations": {}
  },
  "properties": {
    "bookingAccountingId": {
      "type": "Number",
      "required": false,
      "length": null,
      "precision": 10,
      "scale": 0,
      "id": 1,
      "mysql": {
        "columnName": "booking_accounting_id",
        "dataType": "int",
        "dataLength": null,
        "dataPrecision": 10,
        "dataScale": 0,
        "nullable": "N"
      }
    },
    "bookingId": {
      "type": "Number",
      "required": true,
      "length": null,
      "precision": 10,
      "scale": 0,
      "mysql": {
        "columnName": "booking_id",
        "dataType": "int",
        "dataLength": null,
        "dataPrecision": 10,
        "dataScale": 0,
        "nullable": "N"
      }
    },
    "bookingLinktext": {
      "type": "String",
      "required": true,
      "length": 45,
      "precision": null,
      "scale": null,
      "mysql": {
        "columnName": "booking_linktext",
        "dataType": "varchar",
        "dataLength": 45,
        "dataPrecision": null,
        "dataScale": null,
        "nullable": "N"
      }
    },
    "paymentType": {
      "type": "String",
      "required": false,
      "length": 11,
      "precision": null,
      "scale": null,
      "mysql": {
        "columnName": "payment_type",
        "dataType": "enum",
        "dataLength": 11,
        "dataPrecision": null,
        "dataScale": null,
        "nullable": "Y"
      }
    },
    "transactionValue": {
      "type": "String",
      "required": false,
      "length": null,
      "precision": 10,
      "scale": 2,
      "mysql": {
        "columnName": "transaction_value",
        "dataType": "decimal",
        "dataLength": null,
        "dataPrecision": 10,
        "dataScale": 2,
        "nullable": "Y"
      }
    },
    "tripPrice": {
      "type": "String",
      "required": false,
      "length": null,
      "precision": 10,
      "scale": 2,
      "mysql": {
        "columnName": "trip_price",
        "dataType": "decimal",
        "dataLength": null,
        "dataPrecision": 10,
        "dataScale": 2,
        "nullable": "Y"
      }
    },
    "bookingFee": {
      "type": "String",
      "required": false,
      "length": null,
      "precision": 10,
      "scale": 2,
      "mysql": {
        "columnName": "booking_fee",
        "dataType": "decimal",
        "dataLength": null,
        "dataPrecision": 10,
        "dataScale": 2,
        "nullable": "Y"
      }
    },
    "tripPriceLessPromo": {
      "type": "String",
      "required": false,
      "length": null,
      "precision": 10,
      "scale": 2,
      "mysql": {
        "columnName": "trip_price_less_promo",
        "dataType": "decimal",
        "dataLength": null,
        "dataPrecision": 10,
        "dataScale": 2,
        "nullable": "Y"
      }
    },
    "commissionRate": {
      "type": "String",
      "required": false,
      "length": null,
      "precision": 10,
      "scale": 2,
      "mysql": {
        "columnName": "commission_rate",
        "dataType": "decimal",
        "dataLength": null,
        "dataPrecision": 10,
        "dataScale": 2,
        "nullable": "Y"
      }
    },
    "vatRate": {
      "type": "String",
      "required": false,
      "length": null,
      "precision": 10,
      "scale": 2,
      "mysql": {
        "columnName": "vat_rate",
        "dataType": "decimal",
        "dataLength": null,
        "dataPrecision": 10,
        "dataScale": 2,
        "nullable": "Y"
      }
    },
    "commission": {
      "type": "String",
      "required": false,
      "length": null,
      "precision": 10,
      "scale": 2,
      "mysql": {
        "columnName": "commission",
        "dataType": "decimal",
        "dataLength": null,
        "dataPrecision": 10,
        "dataScale": 2,
        "nullable": "Y"
      }
    },
    "vatOnCommission": {
      "type": "String",
      "required": false,
      "length": null,
      "precision": 10,
      "scale": 2,
      "mysql": {
        "columnName": "vat_on_commission",
        "dataType": "decimal",
        "dataLength": null,
        "dataPrecision": 10,
        "dataScale": 2,
        "nullable": "Y"
      }
    },
    "phoPay": {
      "type": "String",
      "required": false,
      "length": null,
      "precision": 10,
      "scale": 2,
      "mysql": {
        "columnName": "pho_pay",
        "dataType": "decimal",
        "dataLength": null,
        "dataPrecision": 10,
        "dataScale": 2,
        "nullable": "Y"
      }
    },
    "promoDeduction": {
      "type": "String",
      "required": false,
      "length": null,
      "precision": 10,
      "scale": 2,
      "mysql": {
        "columnName": "promo_deduction",
        "dataType": "decimal",
        "dataLength": null,
        "dataPrecision": 10,
        "dataScale": 2,
        "nullable": "Y"
      }
    },
    "transactionCharge": {
      "type": "String",
      "required": false,
      "length": null,
      "precision": 10,
      "scale": 2,
      "mysql": {
        "columnName": "transaction_charge",
        "dataType": "decimal",
        "dataLength": null,
        "dataPrecision": 10,
        "dataScale": 2,
        "nullable": "Y"
      }
    },
    "income": {
      "type": "String",
      "required": false,
      "length": null,
      "precision": 10,
      "scale": 2,
      "mysql": {
        "columnName": "income",
        "dataType": "decimal",
        "dataLength": null,
        "dataPrecision": 10,
        "dataScale": 2,
        "nullable": "Y"
      }
    },
    "netCommission": {
      "type": "String",
      "required": false,
      "length": null,
      "precision": 10,
      "scale": 2,
      "mysql": {
        "columnName": "net_commission",
        "dataType": "decimal",
        "dataLength": null,
        "dataPrecision": 10,
        "dataScale": 2,
        "nullable": "Y"
      }
    },
    "netBookingFee": {
      "type": "String",
      "required": false,
      "length": null,
      "precision": 10,
      "scale": 2,
      "mysql": {
        "columnName": "net_booking_fee",
        "dataType": "decimal",
        "dataLength": null,
        "dataPrecision": 10,
        "dataScale": 2,
        "nullable": "Y"
      }
    },
    "netTransactionCharge": {
      "type": "String",
      "required": false,
      "length": null,
      "precision": 10,
      "scale": 2,
      "mysql": {
        "columnName": "net_transaction_charge",
        "dataType": "decimal",
        "dataLength": null,
        "dataPrecision": 10,
        "dataScale": 2,
        "nullable": "Y"
      }
    },
    "netIncome": {
      "type": "String",
      "required": false,
      "length": null,
      "precision": 10,
      "scale": 2,
      "mysql": {
        "columnName": "net_income",
        "dataType": "decimal",
        "dataLength": null,
        "dataPrecision": 10,
        "dataScale": 2,
        "nullable": "Y"
      }
    },
    "netIncomeLessPromo": {
      "type": "String",
      "required": false,
      "length": null,
      "precision": 10,
      "scale": 2,
      "mysql": {
        "columnName": "net_income_less_promo",
        "dataType": "decimal",
        "dataLength": null,
        "dataPrecision": 10,
        "dataScale": 2,
        "nullable": "Y"
      }
    }
  }
}
