{
  "name": "headlinePricing",
  "options": {
  "idInjection": false,
    "mysql": {
    "schema": "cogotrip",
      "table": "headline_pricing"
  },
  "relations": {}
},
  "properties": {
  "id": {
    "type": "Number",
      "required": false,
      "length": null,
      "precision": 10,
      "scale": 0,
      "id": 1,
      "mysql": {
      "columnName": "id",
        "dataType": "int",
        "dataLength": null,
        "dataPrecision": 10,
        "dataScale": 0,
        "nullable": "N"
    }
  },
  "mcoId": {
    "type": "Number",
      "required": true,
      "length": null,
      "precision": 10,
      "scale": 0,
      "mysql": {
      "columnName": "mco_id",
        "dataType": "int",
        "dataLength": null,
        "dataPrecision": 10,
        "dataScale": 0,
        "nullable": "N"
    }
  },
  "carSize": {
    "type": "Number",
      "required": false,
      "length": null,
      "precision": 10,
      "scale": 0,
      "mysql": {
      "columnName": "car_size",
        "dataType": "int",
        "dataLength": null,
        "dataPrecision": 10,
        "dataScale": 0,
        "nullable": "Y"
    }
  },
  "startPostcode": {
    "type": "String",
      "required": false,
      "length": 12,
      "precision": null,
      "scale": null,
      "mysql": {
      "columnName": "start_postcode",
        "dataType": "varchar",
        "dataLength": 12,
        "dataPrecision": null,
        "dataScale": null,
        "nullable": "Y"
    }
  },
  "startLatitude": {
    "type": "Number",
      "required": false,
      "length": null,
      "precision": 11,
      "scale": 7,
      "mysql": {
      "columnName": "start_latitude",
        "dataType": "float",
        "dataLength": null,
        "dataPrecision": 11,
        "dataScale": 7,
        "nullable": "Y"
    }
  },
  "startLongitude": {
    "type": "Number",
      "required": false,
      "length": null,
      "precision": 11,
      "scale": 7,
      "mysql": {
      "columnName": "start_longitude",
        "dataType": "float",
        "dataLength": null,
        "dataPrecision": 11,
        "dataScale": 7,
        "nullable": "Y"
    }
  },
  "startRadiusMiles": {
    "type": "Number",
      "required": true,
      "length": null,
      "precision": 12,
      "scale": null,
      "mysql": {
      "columnName": "start_radius_miles",
        "dataType": "float",
        "dataLength": null,
        "dataPrecision": 12,
        "dataScale": null,
        "nullable": "N"
    }
  },
  "finishPostcode": {
    "type": "String",
      "required": false,
      "length": 12,
      "precision": null,
      "scale": null,
      "mysql": {
      "columnName": "finish_postcode",
        "dataType": "varchar",
        "dataLength": 12,
        "dataPrecision": null,
        "dataScale": null,
        "nullable": "Y"
    }
  },
  "finishLatitude": {
    "type": "Number",
      "required": false,
      "length": null,
      "precision": 11,
      "scale": 7,
      "mysql": {
      "columnName": "finish_latitude",
        "dataType": "float",
        "dataLength": null,
        "dataPrecision": 11,
        "dataScale": 7,
        "nullable": "Y"
    }
  },
  "finishLongitude": {
    "type": "Number",
      "required": false,
      "length": null,
      "precision": 11,
      "scale": 7,
      "mysql": {
      "columnName": "finish_longitude",
        "dataType": "float",
        "dataLength": null,
        "dataPrecision": 11,
        "dataScale": 7,
        "nullable": "Y"
    }
  },
  "finishRadiusMiles": {
    "type": "Number",
      "required": true,
      "length": null,
      "precision": 12,
      "scale": null,
      "mysql": {
      "columnName": "finish_radius_miles",
        "dataType": "float",
        "dataLength": null,
        "dataPrecision": 12,
        "dataScale": null,
        "nullable": "N"
    }
  },
  "singlePrice": {
    "type": "Number",
      "required": false,
      "length": null,
      "precision": 19,
      "scale": 2,
      "mysql": {
      "columnName": "single_price",
        "dataType": "float",
        "dataLength": null,
        "dataPrecision": 19,
        "dataScale": 2,
        "nullable": "Y"
    }
  },
  "returnPrice": {
    "type": "Number",
      "required": false,
      "length": null,
      "precision": 19,
      "scale": 2,
      "mysql": {
      "columnName": "return_price",
        "dataType": "float",
        "dataLength": null,
        "dataPrecision": 19,
        "dataScale": 2,
        "nullable": "Y"
    }
  }
}
}
