{
  "_meta": {
    "sources": [
      "loopback/server/models",
      "./models/accessToken",
      "./models/address",
      "./models/booking",
      "./models/customer",
      "./models/driver",
      "./models/acl",
      "./models/mco",
      "./models/roleMapping",
      "./models/role",
      "./models/person",
      "./models/scope",
      "./models/pricingLocation",
      "./models/pricingMco",
      "./models/headlinePricing",
      "./models/graduatedPricing",
      "./models/base/pricing",
      "./models/mcoInventory",
      "./models/notification",
      "./models/statement",
      "./models/bookingPriceAdjustment",
      "./models/bookingAccounting",
      "./models/postcodeAreas",
      "./models/mcoPostcodePricing",
      "./models/mcoInvoice",
      "./models/mcoReconcile",
      "./models/mcoAccountAdjustment",
      "./models/promotionalCode",
      "./models/globalSettings",
      "./models/mcoPayrun",
      "./models/driverNotificationAnswers"
    ],
    "mixins": [
      "loopback/server/mixins",
      "./mixins"
    ]
  },
  "accessToken": {
    "dataSource": "redis",
    "public": false
  },
  "acl": {
    "dataSource": "db",
    "public": true
  },
  "mco": {
    "dataSource": "db",
    "public": true
  },
  "roleMapping": {
    "dataSource": "db",
    "public": true
  },
  "role": {
    "dataSource": "db",
    "public": true
  },
  "person": {
    "dataSource": "db",
    "public": true
  },
  "scope": {
    "dataSource": "db",
    "public": true
  },
  "pricingLocation" : {
    "dataSource": "db",
    "public": true
  },
  "pricingMco": {
    "dataSource": "db",
    "public": false
  },
  "headlinePricing" : {
    "dataSource": "db",
    "public": true
  },
  "graduatedPricing": {
    "dataSource": "db",
    "public": false
  },
  "pricing": {
    "dataSource": false,
    "public": true
  },
  "mcoInventory" : {
    "dataSource": "db",
    "public": true
  },
  "booking": {
    "dataSource": "db",
    "public": true
  },
  "customer": {
    "dataSource": "db"
  },
  "address": {
    "dataSource": "db",
    "public": true
  },
  "driver": {
    "dataSource": "db"
  },
  "notification": {
    "dataSource": null,
    "public": true
  },
  "statement": {
    "dataSource": null,
    "public": true
  },
  "bookingPriceAdjustments": {
    "dataSource": "db",
    "public": false
  },
  "bookingAccounting": {
    "dataSource": "db",
    "public": true
  },
  "postcodeAreas" : {
    "dataSource": "db",
    "public": true
  },
  "mcoPostcodePricing" : {
    "dataSource": "db",
    "public": false
  },
  "mcoInvoice" : {
    "dataSource": "db",
    "public": true
  },
  "mcoReconcile": {
    "dataSource": "db",
    "public": false
  },
  "mcoAccountAdjustment": {
    "dataSource": "db",
    "public": true
  },
  "promotionalCode": {
    "dataSource": "db",
    "public": false
  },
  "globalSettings": {
    "dataSource": "db",
    "public": false
  },
  "driverNotificationAnswers": {
    "dataSource": "db",
    "public": false
  },
  "mcoPayrun": {
    "dataSource": "db",
    "public": true,
    "options": {
      "remoting": {
        "sharedMethods": {
          "*": false,
          "find": true,
          "replaceById": true
        }
      }
    }
  }
}
