{
  "name": "person",
  "base": "User",
  "http": {
    "path": "person"
  },
  "options": {
    "idInjection": false,
    "mysql": {
      "schema": "cogotrip",
      "table": "person"
    },
    "relations": {
      "mco": {
        "type": "belongsTo",
        "model": "mco",
        "foreignKey": "mcoId"
      },
      "accessTokens": {
        "type": "hasMany",
        "model": "accessToken",
        "foreignKey": "userId",
        "options": {
          "disableInclude": true
        }
      }
    }
  },
  "properties": {
    "id": {
      "type": "Number",
      "required": false,
      "length": null,
      "precision": 10,
      "scale": 0,
      "id": 1,
      "mysql": {
        "columnName": "id",
        "dataType": "int",
        "dataLength": null,
        "dataPrecision": 10,
        "dataScale": 0,
        "nullable": "N"
      }
    },
    "realm": {
      "type": "String",
      "required": false,
      "length": 512,
      "precision": null,
      "scale": null,
      "mysql": {
        "columnName": "realm",
        "dataType": "varchar",
        "dataLength": 512,
        "dataPrecision": null,
        "dataScale": null,
        "nullable": "Y"
      }
    },
    "username": {
      "type": "String",
      "required": false,
      "length": 512,
      "precision": null,
      "scale": null,
      "mysql": {
        "columnName": "username",
        "dataType": "varchar",
        "dataLength": 512,
        "dataPrecision": null,
        "dataScale": null,
        "nullable": "Y"
      }
    },
    "password": {
      "type": "String",
      "required": true,
      "length": 512,
      "precision": null,
      "scale": null,
      "mysql": {
        "columnName": "password",
        "dataType": "varchar",
        "dataLength": 512,
        "dataPrecision": null,
        "dataScale": null,
        "nullable": "N"
      }
    },
    "credentials": {
      "type": "String",
      "required": false,
      "length": 65535,
      "precision": null,
      "scale": null,
      "mysql": {
        "columnName": "credentials",
        "dataType": "text",
        "dataLength": 65535,
        "dataPrecision": null,
        "dataScale": null,
        "nullable": "Y"
      }
    },
    "challenges": {
      "type": "String",
      "required": false,
      "length": 65535,
      "precision": null,
      "scale": null,
      "mysql": {
        "columnName": "challenges",
        "dataType": "text",
        "dataLength": 65535,
        "dataPrecision": null,
        "dataScale": null,
        "nullable": "Y"
      }
    },
    "email": {
      "type": "String",
      "required": true,
      "length": 512,
      "precision": null,
      "scale": null,
      "mysql": {
        "columnName": "email",
        "dataType": "varchar",
        "dataLength": 512,
        "dataPrecision": null,
        "dataScale": null,
        "nullable": "N"
      }
    },
    "emailVerified": {
      "type": "Number",
      "required": false,
      "length": null,
      "precision": 3,
      "scale": 0,
      "mysql": {
        "columnName": "email_verified",
        "dataType": "tinyint",
        "dataLength": null,
        "dataPrecision": 3,
        "dataScale": 0,
        "nullable": "Y"
      }
    },
    "verificationToken": {
      "type": "String",
      "required": false,
      "length": 512,
      "precision": null,
      "scale": null,
      "mysql": {
        "columnName": "verification_token",
        "dataType": "varchar",
        "dataLength": 512,
        "dataPrecision": null,
        "dataScale": null,
        "nullable": "Y"
      }
    },
    "status": {
      "type": "String",
      "required": false,
      "length": 512,
      "precision": null,
      "scale": null,
      "mysql": {
        "columnName": "status",
        "dataType": "varchar",
        "dataLength": 512,
        "dataPrecision": null,
        "dataScale": null,
        "nullable": "Y"
      }
    },
    "mcoId": {
      "type": "Number",
      "required": false,
      "length": null,
      "precision": 10,
      "scale": 0,
      "mysql": {
        "columnName": "mco_id",
        "dataType": "int",
        "dataLength": null,
        "dataPrecision": 10,
        "dataScale": 0,
        "nullable": "N"
      }
    },
    "created": {
      "type": "Date",
      "required": false,
      "length": null,
      "precision": null,
      "scale": null,
      "mysql": {
        "columnName": "created",
        "dataType": "datetime",
        "dataLength": null,
        "dataPrecision": null,
        "dataScale": null,
        "nullable": "Y"
      }
    },
    "lastUpdated": {
      "type": "Date",
      "required": false,
      "length": null,
      "precision": null,
      "scale": null,
      "mysql": {
        "columnName": "last_updated",
        "dataType": "datetime",
        "dataLength": null,
        "dataPrecision": null,
        "dataScale": null,
        "nullable": "Y"
      }
    }
  },
  "acls": [
    {
      "principalType": "ROLE",
      "principalId": "$everyone",
      "permission": "DENY"
    },
    {
      "principalType": "ROLE",
      "principalId": "$everyone",
      "permission": "ALLOW",
      "property": "mcoRegister"
    }
  ]
}