{
  "name": "pricingLocation",
  "options": {
    "idInjection": false,
    "mysql": {
      "schema": "cogotrip",
      "table": "pricing_location"
    },
    "relations": {}
  },
  "properties": {
    "locationId": {
      "type": "Number",
      "required": true,
      "length": null,
      "precision": 10,
      "scale": 0,
      "id": 1,
      "mysql": {
        "columnName": "location_id",
        "dataType": "int",
        "dataLength": null,
        "dataPrecision": 10,
        "dataScale": 0,
        "nullable": "N"
      }
    },
    "locationName": {
      "type": "String",
      "required": false,
      "length": 50,
      "precision": null,
      "scale": null,
      "mysql": {
        "columnName": "location_name",
        "dataType": "varchar",
        "dataLength": 50,
        "dataPrecision": null,
        "dataScale": null,
        "nullable": "Y"
      }
    },
    "locationPostcode": {
      "type": "String",
      "required": false,
      "length": 10,
      "precision": null,
      "scale": null,
      "mysql": {
        "columnName": "location_postcode",
        "dataType": "varchar",
        "dataLength": 10,
        "dataPrecision": null,
        "dataScale": null,
        "nullable": "Y"
      }
    },
    "locationLongitude": {
      "type": "Number",
      "required": false,
      "length": null,
      "precision": 11,
      "scale": 7,
      "mysql": {
        "columnName": "location_longitude",
        "dataType": "float",
        "dataLength": null,
        "dataPrecision": 11,
        "dataScale": 7,
        "nullable": "Y"
      }
    },
    "locationLatitude": {
      "type": "Number",
      "required": false,
      "length": null,
      "precision": 11,
      "scale": 7,
      "mysql": {
        "columnName": "location_latitude",
        "dataType": "float",
        "dataLength": null,
        "dataPrecision": 11,
        "dataScale": 7,
        "nullable": "Y"
      }
    },
    "locationGridnorth": {
      "type": "Number",
      "required": false,
      "length": null,
      "precision": 10,
      "scale": 0,
      "mysql": {
        "columnName": "location_gridnorth",
        "dataType": "int",
        "dataLength": null,
        "dataPrecision": 10,
        "dataScale": 0,
        "nullable": "Y"
      }
    },
    "locationGrideast": {
      "type": "Number",
      "required": false,
      "length": null,
      "precision": 10,
      "scale": 0,
      "mysql": {
        "columnName": "location_grideast",
        "dataType": "int",
        "dataLength": null,
        "dataPrecision": 10,
        "dataScale": 0,
        "nullable": "Y"
      }
    },
    "locationStatus": {
      "type": "Number",
      "required": false,
      "length": null,
      "precision": 10,
      "scale": 0,
      "mysql": {
        "columnName": "location_status",
        "dataType": "int",
        "dataLength": null,
        "dataPrecision": 10,
        "dataScale": 0,
        "nullable": "Y"
      }
    },
    "alwaysDisplay": {
      "type": "String",
      "required": true,
      "length": 1,
      "precision": null,
      "scale": null,
      "mysql": {
        "columnName": "always_display",
        "dataType": "enum",
        "dataLength": 1,
        "dataPrecision": null,
        "dataScale": null,
        "nullable": "N"
      }
    }
  }
}
