{
  "name": "accessToken",
  "base": "AccessToken",
  "options": {
    "idInjection": false,
    "mysql": {
      "schema": "cogotrip",
      "table": "access_token"
    },
    "relations": {}
  },
  "properties": {
    "id": {
      "type": "String",
      "required": true,
      "length": 255,
      "precision": null,
      "scale": null,
      "id": 1,
      "mysql": {
        "columnName": "id",
        "dataType": "varchar",
        "dataLength": 255,
        "dataPrecision": null,
        "dataScale": null,
        "nullable": "N"
      }
    },
    "ttl": {
      "type": "Number",
      "required": false,
      "length": null,
      "precision": 10,
      "scale": 0,
      "mysql": {
        "columnName": "ttl",
        "dataType": "int",
        "dataLength": null,
        "dataPrecision": 10,
        "dataScale": 0,
        "nullable": "Y"
      }
    },
    "created": {
      "type": "Date",
      "required": false,
      "length": null,
      "precision": null,
      "scale": null,
      "mysql": {
        "columnName": "created",
        "dataType": "datetime",
        "dataLength": null,
        "dataPrecision": null,
        "dataScale": null,
        "nullable": "Y"
      }
    },
    "userId": {
      "type": "Number",
      "required": false,
      "length": null,
      "precision": 10,
      "scale": 0,
      "mysql": {
        "columnName": "userId",
        "dataType": "int",
        "dataLength": null,
        "dataPrecision": 10,
        "dataScale": 0,
        "nullable": "Y"
      }
    }
  }
}
